tek0010.csv

Model,MSO4102B-L
Firmware Version,3.20

Waveform Type,ANALOG,
Point Format,Y,
Horizontal Units,s,
Horizontal Scale,4e-06,
Horizontal Delay,1.88e-05,
Sample Interval,4e-10,
Record Length,100000,
Gating,0.0% to 100.0%,
Probe Attenuation,1,1
Vertical Units,V,V
Vertical Offset,0,0
Vertical Scale,1,0.05
Vertical Position,3.6,1.32
,,
,,
,,
Label,,
TIME,CH1,CH2
-1.200000e-06,-0.120156,0.00199219
-1.199600e-06,-0.08,0.004
-1.199200e-06,-0.120156,-0.00200781
-1.198800e-06,-0.120156,0.00399219
-1.198400e-06,-0.120156,0.00399219
-1.198000e-06,-0.04,0.004
-1.197600e-06,-0.16,0.004
-1.197200e-06,-0.16,0.002
-1.196800e-06,-0.08,0.004
-1.196400e-06,-0.160156,-0.00400781
-1.196000e-06,-0.12,-0.008
-1.195600e-06,-0.04,-0.006
-1.195200e-06,-0.120156,-0.00400781
-1.194800e-06,-0.0801562,-7.8125e-06
-1.194400e-06,-0.0401562,-0.00400781
-1.194000e-06,-0.04,0
-1.193600e-06,-0.120156,0.00199219
-1.193200e-06,-0.0801562,-0.00600781
-1.192800e-06,-0.0801562,-0.00800781
-1.192400e-06,0,-0.008
-1.192000e-06,-0.120156,0.00599219
-1.191600e-06,-0.120156,0.00999219
-1.191200e-06,-0.160156,0.00199219
-1.190800e-06,-0.160156,-0.00400781
-1.190400e-06,-0.200156,0.00399219
-1.190000e-06,-0.120156,-7.8125e-06
-1.189600e-06,-0.12,-0.002
-1.189200e-06,-0.2,-0.008
-1.188800e-06,-0.120156,-0.00800781
-1.188400e-06,-0.16,-0.006
-1.188000e-06,-0.24,-0.006
-1.187600e-06,-0.200156,-0.00200781
-1.187200e-06,-0.16,-0.004
-1.186800e-06,-0.16,-0.008
-1.186400e-06,-0.16,-0.002
-1.186000e-06,-0.2,-0.01
-1.185600e-06,-0.200156,-0.0200078
-1.185200e-06,-0.200156,-0.0140078
-1.184800e-06,-0.200156,-0.0100078
-1.184400e-06,-0.200156,-0.0120078
-1.184000e-06,-0.2,-0.022
-1.183600e-06,-0.2,-0.032
-1.183200e-06,-0.2,-0.032
-1.182800e-06,-0.200156,-0.0360078
-1.182400e-06,-0.2,-0.04
-1.182000e-06,-0.240156,-0.0400078
-1.181600e-06,-0.280156,-0.0460078
-1.181200e-06,-0.240156,-0.0520078
-1.180800e-06,-0.16,-0.062
-1.180400e-06,-0.24,-0.062
-1.180000e-06,-0.240156,-0.0800078
-1.179600e-06,-0.24,-0.072
-1.179200e-06,-0.200156,-0.0840078
-1.178800e-06,-0.200156,-0.0840078
-1.178400e-06,-0.24,-0.102
-1.178000e-06,-0.2,-0.118
-1.177600e-06,-0.200156,-0.110008
-1.177200e-06,-0.240156,-0.132008
-1.176800e-06,-0.200156,-0.126008
-1.176400e-06,-0.280156,-0.128008
-1.176000e-06,-0.2,-0.136
-1.175600e-06,-0.200156,-0.160008
-1.175200e-06,-0.24,-0.144
-1.174800e-06,-0.200156,-0.156008
-1.174400e-06,-0.200156,-0.158008
-1.174000e-06,-0.2,-0.164
-1.173600e-06,-0.160156,-0.176008
-1.173200e-06,-0.200156,-0.164008
-1.172800e-06,-0.120156,-0.164008
-1.172400e-06,-0.200156,-0.174008
-1.172000e-06,-0.200156,-0.180008
-1.171600e-06,-0.16,-0.15
-1.171200e-06,-0.200156,-0.144008
-1.170800e-06,-0.120156,-0.130008
-1.170400e-06,-0.120156,-0.134008
-1.170000e-06,-0.160156,-0.126008
-1.169600e-06,-0.120156,-0.124008
-1.169200e-06,-0.120156,-0.102008
-1.168800e-06,-0.120156,-0.106008
-1.168400e-06,-0.2,-0.094
-1.168000e-06,-0.120156,-0.0960078
-1.167600e-06,-0.12,-0.082
-1.167200e-06,-0.08,-0.086
-1.166800e-06,-0.16,-0.09
-1.166400e-06,-0.0801562,-0.0780078
-1.166000e-06,-0.16,-0.072
-1.165600e-06,-0.04,-0.066
-1.165200e-06,-0.08,-0.06
-1.164800e-06,-0.00015625,-0.0500078
-1.164400e-06,-0.08,-0.048
-1.164000e-06,-0.0401562,-0.0540078
-1.163600e-06,-0.0401562,-0.0500078
-1.163200e-06,-0.00015625,-0.0400078
-1.162800e-06,-0.08,-0.044
-1.162400e-06,-0.08,-0.034
-1.162000e-06,-0.0801562,-0.0320078
-1.161600e-06,-0.0801562,-0.0380078
-1.161200e-06,-0.0401562,-0.0360078
-1.160800e-06,-0.08,-0.04
-1.160400e-06,-0.0401562,-0.0360078
-1.160000e-06,-0.0401562,-0.0240078
-1.159600e-06,-0.0401562,-0.0380078
-1.159200e-06,0,-0.026
-1.158800e-06,-0.04,-0.048
-1.158400e-06,-0.120156,-0.0420078
-1.158000e-06,-0.0801562,-0.0320078
-1.157600e-06,-0.120156,-0.0260078
-1.157200e-06,-0.08,-0.018
-1.156800e-06,-0.04,-0.032
-1.156400e-06,-0.0401562,-0.0300078
-1.156000e-06,-0.160156,-0.0360078
-1.155600e-06,-0.04,-0.03
-1.155200e-06,-0.120156,-0.0360078
-1.154800e-06,-0.04,-0.03
-1.154400e-06,-0.12,-0.028
-1.154000e-06,-0.12,-0.026
-1.153600e-06,-0.120156,-0.0280078
-1.153200e-06,-0.120156,-0.0240078
-1.152800e-06,-0.200156,-0.0220078
-1.152400e-06,-0.08,-0.018
-1.152000e-06,-0.16,-0.012
-1.151600e-06,-0.16,-0.01
-1.151200e-06,-0.160156,-0.0300078
-1.150800e-06,-0.0801562,-0.0280078
-1.150400e-06,-0.160156,-0.0140078
-1.150000e-06,-0.2,-0.016
-1.149600e-06,-0.2,-0.01
-1.149200e-06,-0.120156,-0.0160078
-1.148800e-06,-0.160156,-0.00400781
-1.148400e-06,-0.200156,-0.00200781
-1.148000e-06,-0.2,0.006
-1.147600e-06,-0.12,-0.004
-1.147200e-06,-0.2,-0.012
-1.146800e-06,-0.0801562,-0.00600781
-1.146400e-06,-0.16,-0.008
-1.146000e-06,-0.160156,-0.00800781
-1.145600e-06,-0.120156,-7.8125e-06
-1.145200e-06,-0.120156,0.00199219
-1.144800e-06,-0.120156,0.00199219
-1.144400e-06,-0.16,-0.01
-1.144000e-06,-0.24,0.004
-1.143600e-06,-0.08,0.002
-1.143200e-06,-0.08,0.01
-1.142800e-06,-0.0801562,-0.00400781
-1.142400e-06,-0.16,-0.004
-1.142000e-06,-0.16,-0.008
-1.141600e-06,-0.08,-0.004
-1.141200e-06,-0.08,-0.01
-1.140800e-06,-0.0401562,-0.00800781
-1.140400e-06,-0.0801562,-0.00400781
-1.140000e-06,-0.04,-0.002
-1.139600e-06,-0.160156,-0.00400781
-1.139200e-06,-0.08,0.008
-1.138800e-06,-0.0801562,-0.00800781
-1.138400e-06,-0.08,0.002
-1.138000e-06,-0.120156,0.00399219
-1.137600e-06,-0.08,0
-1.137200e-06,-0.12,0
-1.136800e-06,-0.160156,0.00199219
-1.136400e-06,-0.04,0.002
-1.136000e-06,-0.0801562,-7.8125e-06
-1.135600e-06,-0.0401562,-0.00200781
-1.135200e-06,-0.12,0.008
-1.134800e-06,-0.12,0.002
-1.134400e-06,-0.08,0.002
-1.134000e-06,-0.08,0.004
-1.133600e-06,-0.08,-0.006
-1.133200e-06,-0.160156,-0.0180078
-1.132800e-06,-0.120156,-0.0180078
-1.132400e-06,-0.160156,-0.0160078
-1.132000e-06,-0.120156,-0.00400781
-1.131600e-06,-0.16,-0.008
-1.131200e-06,-0.16,-0.014
-1.130800e-06,-0.160156,-0.0220078
-1.130400e-06,-0.160156,-0.0100078
-1.130000e-06,-0.160156,-0.0120078
-1.129600e-06,-0.16,-0.014
-1.129200e-06,-0.240156,-0.00600781
-1.128800e-06,-0.200156,-0.0220078
-1.128400e-06,-0.200156,-0.0240078
-1.128000e-06,-0.2,-0.028
-1.127600e-06,-0.2,-0.026
-1.127200e-06,-0.2,-0.022
-1.126800e-06,-0.160156,-0.0440078
-1.126400e-06,-0.160156,-0.0280078
-1.126000e-06,-0.200156,-0.0440078
-1.125600e-06,-0.200156,-0.0440078
-1.125200e-06,-0.2,-0.04
-1.124800e-06,-0.160156,-0.0600078
-1.124400e-06,-0.2,-0.066
-1.124000e-06,-0.280156,-0.0580078
-1.123600e-06,-0.280156,-0.0680078
-1.123200e-06,-0.2,-0.076
-1.122800e-06,-0.240156,-0.0880078
-1.122400e-06,-0.16,-0.098
-1.122000e-06,-0.2,-0.11
-1.121600e-06,-0.160156,-0.128008
-1.121200e-06,-0.24,-0.118
-1.120800e-06,-0.16,-0.118
-1.120400e-06,-0.240156,-0.122008
-1.120000e-06,-0.12,-0.142
-1.119600e-06,-0.320156,-0.168008
-1.119200e-06,-0.200156,-0.152008
-1.118800e-06,-0.2,-0.166
-1.118400e-06,-0.16,-0.152
-1.118000e-06,-0.24,-0.158
-1.117600e-06,-0.24,-0.17
-1.117200e-06,-0.120156,-0.170008
-1.116800e-06,-0.200156,-0.158008
-1.116400e-06,-0.2,-0.162
-1.116000e-06,-0.16,-0.166
-1.115600e-06,-0.24,-0.142
-1.115200e-06,-0.2,-0.146
-1.114800e-06,-0.200156,-0.150008
-1.114400e-06,-0.2,-0.15
-1.114000e-06,-0.160156,-0.150008
-1.113600e-06,-0.12,-0.138
-1.113200e-06,-0.12,-0.14
-1.112800e-06,-0.160156,-0.126008
-1.112400e-06,-0.16,-0.112
-1.112000e-06,-0.200156,-0.100008
-1.111600e-06,-0.120156,-0.106008
-1.111200e-06,-0.0801562,-0.0980078
-1.110800e-06,-0.16,-0.098
-1.110400e-06,-0.08,-0.102
-1.110000e-06,-0.12,-0.086
-1.109600e-06,-0.12,-0.078
-1.109200e-06,-0.04,-0.072
-1.108800e-06,-0.12,-0.068
-1.108400e-06,-0.0401562,-0.0660078
-1.108000e-06,-0.0801562,-0.0660078
-1.107600e-06,-0.04,-0.07
-1.107200e-06,-0.12,-0.068
-1.106800e-06,-0.04,-0.064
-1.106400e-06,-0.0801562,-0.0520078
-1.106000e-06,-0.00015625,-0.0560078
-1.105600e-06,-0.0801562,-0.0400078
-1.105200e-06,-0.0801562,-0.0420078
-1.104800e-06,-0.0801562,-0.0340078
-1.104400e-06,-0.0401562,-0.0280078
-1.104000e-06,-0.0401562,-0.0400078
-1.103600e-06,-0.04,-0.03
-1.103200e-06,-0.120156,-0.0420078
-1.102800e-06,-0.0801562,-0.0420078
-1.102400e-06,-0.04,-0.056
-1.102000e-06,-0.12,-0.046
-1.101600e-06,-0.08,-0.032
-1.101200e-06,-0.08,-0.036
-1.100800e-06,-0.120156,-0.0420078
-1.100400e-06,-0.16,-0.032
-1.100000e-06,-0.08,-0.024
-1.099600e-06,-0.120156,-0.0280078
-1.099200e-06,-0.00015625,-0.0260078
-1.098800e-06,-0.0801562,-0.0120078
-1.098400e-06,-0.04,-0.024
-1.098000e-06,-0.0401562,-0.0200078
-1.097600e-06,-0.12,-0.024
-1.097200e-06,-0.120156,-0.0240078
-1.096800e-06,-0.16,-0.026
-1.096400e-06,-0.12,-0.026
-1.096000e-06,-0.12,-0.026
-1.095600e-06,-0.16,-0.012
-1.095200e-06,-0.200156,-0.0100078
-1.094800e-06,-0.160156,-0.0200078
-1.094400e-06,-0.200156,-0.0220078
-1.094000e-06,-0.200156,-0.0140078
-1.093600e-06,-0.16,-0.012
-1.093200e-06,-0.2,-0.014
-1.092800e-06,-0.160156,-0.0100078
-1.092400e-06,-0.160156,-0.0160078
-1.092000e-06,-0.200156,-0.00600781
-1.091600e-06,-0.2,-0.01
-1.091200e-06,-0.2,-0.006
-1.090800e-06,-0.200156,-0.0120078
-1.090400e-06,-0.240156,-0.0100078
-1.090000e-06,-0.200156,-0.00800781
-1.089600e-06,-0.200156,-0.00800781
-1.089200e-06,-0.120156,-0.00200781
-1.088800e-06,-0.120156,-0.0120078
-1.088400e-06,-0.120156,-0.00800781
-1.088000e-06,-0.200156,-0.0160078
-1.087600e-06,-0.16,-0.01
-1.087200e-06,-0.12,0.006
-1.086800e-06,-0.16,0
-1.086400e-06,-0.0401562,-0.0120078
-1.086000e-06,-0.12,0
-1.085600e-06,-0.120156,-0.0120078
-1.085200e-06,-0.08,-0.006
-1.084800e-06,-0.0801562,-0.00200781
-1.084400e-06,-0.0801562,-0.00400781
-1.084000e-06,-0.0801562,-0.00800781
-1.083600e-06,-0.160156,-0.00200781
-1.083200e-06,-0.08,0.002
-1.082800e-06,-0.08,0
-1.082400e-06,-0.0801562,0.00399219
-1.082000e-06,-0.120156,-7.8125e-06
-1.081600e-06,-0.08,0.004
-1.081200e-06,-0.0801562,0.00599219
-1.080800e-06,-0.120156,-7.8125e-06
-1.080400e-06,-0.12,0.004
-1.080000e-06,0,0.004
-1.079600e-06,-0.120156,-0.00600781
-1.079200e-06,-0.120156,0.00399219
-1.078800e-06,-0.0801562,-0.00400781
-1.078400e-06,-0.120156,-0.00200781
-1.078000e-06,-0.16,-0.002
-1.077600e-06,-0.0801562,0.00199219
-1.077200e-06,-0.08,-0.016
-1.076800e-06,-0.08,-0.002
-1.076400e-06,-0.08,-0.002
-1.076000e-06,-0.08,0
-1.075600e-06,-0.08,0.004
-1.075200e-06,-0.120156,-7.8125e-06
-1.074800e-06,-0.120156,-0.0120078
-1.074400e-06,-0.2,-0.014
-1.074000e-06,-0.200156,-0.0160078
-1.073600e-06,-0.08,-0.026
-1.073200e-06,-0.12,-0.016
-1.072800e-06,-0.16,-0.016
-1.072400e-06,-0.16,-0.024
-1.072000e-06,-0.240156,-0.0240078
-1.071600e-06,-0.160156,-0.0240078
-1.071200e-06,-0.12,-0.036
-1.070800e-06,-0.160156,-0.0340078
-1.070400e-06,-0.16,-0.052
-1.070000e-06,-0.24,-0.032
-1.069600e-06,-0.2,-0.044
-1.069200e-06,-0.200156,-0.0500078
-1.068800e-06,-0.2,-0.048
-1.068400e-06,-0.200156,-0.0500078
-1.068000e-06,-0.2,-0.062
-1.067600e-06,-0.240156,-0.0540078
-1.067200e-06,-0.24,-0.054
-1.066800e-06,-0.24,-0.086
-1.066400e-06,-0.240156,-0.0900078
-1.066000e-06,-0.2,-0.11
-1.065600e-06,-0.200156,-0.102008
-1.065200e-06,-0.28,-0.09
-1.064800e-06,-0.240156,-0.104008
-1.064400e-06,-0.28,-0.116
-1.064000e-06,-0.24,-0.118
-1.063600e-06,-0.2,-0.106
-1.063200e-06,-0.16,-0.14
-1.062800e-06,-0.280156,-0.122008
-1.062400e-06,-0.2,-0.142
-1.062000e-06,-0.2,-0.144
-1.061600e-06,-0.2,-0.156
-1.061200e-06,-0.240156,-0.156008
-1.060800e-06,-0.240156,-0.152008
-1.060400e-06,-0.24,-0.152
-1.060000e-06,-0.200156,-0.154008
-1.059600e-06,-0.200156,-0.158008
-1.059200e-06,-0.120156,-0.162008
-1.058800e-06,-0.24,-0.144
-1.058400e-06,-0.12,-0.15
-1.058000e-06,-0.120156,-0.150008
-1.057600e-06,-0.160156,-0.150008
-1.057200e-06,-0.200156,-0.126008
-1.056800e-06,-0.120156,-0.114008
-1.056400e-06,-0.200156,-0.122008
-1.056000e-06,-0.16,-0.118
-1.055600e-06,-0.160156,-0.118008
-1.055200e-06,-0.12,-0.114
-1.054800e-06,-0.16,-0.106
-1.054400e-06,-0.200156,-0.106008
-1.054000e-06,-0.12,-0.1
-1.053600e-06,-0.0801562,-0.0680078
-1.053200e-06,-0.08,-0.078
-1.052800e-06,-0.08,-0.078
-1.052400e-06,-0.120156,-0.0600078
-1.052000e-06,-0.0801562,-0.0520078
-1.051600e-06,-0.0401562,-0.0500078
-1.051200e-06,-0.120156,-0.0640078
-1.050800e-06,-0.0801562,-0.0460078
-1.050400e-06,-0.04,-0.048
-1.050000e-06,-0.08,-0.04
-1.049600e-06,-0.08,-0.044
-1.049200e-06,-0.04,-0.03
-1.048800e-06,-0.0801562,-0.0220078
-1.048400e-06,-0.16,-0.034
-1.048000e-06,-0.00015625,-0.0280078
-1.047600e-06,-0.0401562,-0.0360078
-1.047200e-06,0,-0.024
-1.046800e-06,0,-0.032
-1.046400e-06,-0.08,-0.028
-1.046000e-06,-0.08,-0.038
-1.045600e-06,-0.12,-0.036
-1.045200e-06,-0.0401562,-0.0260078
-1.044800e-06,-0.12,-0.026
-1.044400e-06,-0.08,-0.016
-1.044000e-06,-0.08,-0.018
-1.043600e-06,-0.0801562,-0.0260078
-1.043200e-06,-0.04,-0.036
-1.042800e-06,-0.12,-0.032
-1.042400e-06,-0.120156,-0.0320078
-1.042000e-06,-0.08,-0.024
-1.041600e-06,-0.12,-0.02
-1.041200e-06,-0.08,-0.022
-1.040800e-06,-0.08,-0.016
-1.040400e-06,-0.0801562,-0.0160078
-1.040000e-06,-0.12,-0.028
-1.039600e-06,-0.0801562,-0.0260078
-1.039200e-06,-0.16,-0.028
-1.038800e-06,-0.12,-0.038
-1.038400e-06,-0.160156,-0.0340078
-1.038000e-06,-0.08,-0.018
-1.037600e-06,-0.160156,-0.0180078
-1.037200e-06,-0.2,-0.032
-1.036800e-06,-0.16,-0.028
-1.036400e-06,-0.2,-0.018
-1.036000e-06,-0.0801562,-0.0340078
-1.035600e-06,-0.12,-0.022
-1.035200e-06,-0.2,-0.02
-1.034800e-06,-0.160156,-0.0200078
-1.034400e-06,-0.2,-0.012
-1.034000e-06,-0.160156,-0.0160078
-1.033600e-06,-0.16,-0.008
-1.033200e-06,-0.160156,-0.0100078
-1.032800e-06,-0.200156,-0.00800781
-1.032400e-06,-0.2,-0.002
-1.032000e-06,-0.0801562,-0.0100078
-1.031600e-06,-0.2,-0.012
-1.031200e-06,-0.160156,-0.0120078
-1.030800e-06,-0.0801562,-0.00800781
-1.030400e-06,-0.08,-0.012
-1.030000e-06,-0.120156,-0.0100078
-1.029600e-06,-0.04,-0.01
-1.029200e-06,-0.12,-0.002
-1.028800e-06,-0.120156,0.00199219
-1.028400e-06,-0.0801562,-7.8125e-06
-1.028000e-06,-0.0401562,-0.00200781
-1.027600e-06,-0.08,-0.008
-1.027200e-06,-0.0801562,-0.00800781
-1.026800e-06,-0.120156,-0.00800781
-1.026400e-06,-0.08,-0.024
-1.026000e-06,-0.08,0
-1.025600e-06,-0.0801562,-0.0100078
-1.025200e-06,-0.12,-0.016
-1.024800e-06,-0.120156,-0.00800781
-1.024400e-06,0,-0.016
-1.024000e-06,-0.0401562,-0.00800781
-1.023600e-06,-0.04,-0.012
-1.023200e-06,-0.120156,-0.0260078
-1.022800e-06,-0.12,-0.014
-1.022400e-06,-0.0401562,-7.8125e-06
-1.022000e-06,-0.120156,-0.0120078
-1.021600e-06,-0.0401562,-0.0260078
-1.021200e-06,-0.0801562,-0.0140078
-1.020800e-06,-0.08,-0.008
-1.020400e-06,-0.120156,-0.00800781
-1.020000e-06,-0.120156,-0.0140078
-1.019600e-06,-0.04,-0.022
-1.019200e-06,-0.12,-0.01
-1.018800e-06,-0.120156,-0.0180078
-1.018400e-06,-0.120156,-0.0260078
-1.018000e-06,-0.12,-0.012
-1.017600e-06,-0.200156,-0.0140078
-1.017200e-06,-0.120156,-0.0120078
-1.016800e-06,-0.0801562,-0.0180078
-1.016400e-06,-0.200156,-0.0260078
-1.016000e-06,-0.200156,-0.0240078
-1.015600e-06,-0.16,-0.022
-1.015200e-06,-0.12,-0.028
-1.014800e-06,-0.24,-0.046
-1.014400e-06,-0.240156,-0.0440078
-1.014000e-06,-0.16,-0.042
-1.013600e-06,-0.2,-0.032
-1.013200e-06,-0.200156,-0.0380078
-1.012800e-06,-0.2,-0.044
-1.012400e-06,-0.240156,-0.0540078
-1.012000e-06,-0.2,-0.05
-1.011600e-06,-0.28,-0.06
-1.011200e-06,-0.240156,-0.0700078
-1.010800e-06,-0.240156,-0.0760078
-1.010400e-06,-0.240156,-0.0780078
-1.010000e-06,-0.280156,-0.102008
-1.009600e-06,-0.280156,-0.102008
-1.009200e-06,-0.200156,-0.0900078
-1.008800e-06,-0.2,-0.1
-1.008400e-06,-0.16,-0.126
-1.008000e-06,-0.160156,-0.104008
-1.007600e-06,-0.2,-0.13
-1.007200e-06,-0.200156,-0.112008
-1.006800e-06,-0.280156,-0.122008
-1.006400e-06,-0.200156,-0.152008
-1.006000e-06,-0.24,-0.144
-1.005600e-06,-0.240156,-0.146008
-1.005200e-06,-0.24,-0.162
-1.004800e-06,-0.200156,-0.148008
-1.004400e-06,-0.160156,-0.138008
-1.004000e-06,-0.16,-0.154
-1.003600e-06,-0.16,-0.162
-1.003200e-06,-0.12,-0.144
-1.002800e-06,-0.2,-0.142
-1.002400e-06,-0.16,-0.138
-1.002000e-06,-0.240156,-0.148008
-1.001600e-06,-0.08,-0.146
-1.001200e-06,-0.120156,-0.134008
-1.000800e-06,-0.12,-0.124
-1.000400e-06,-0.16,-0.124
-1.000000e-06,-0.200156,-0.124008
-9.996000e-07,-0.120156,-0.126008
-9.992000e-07,-0.200156,-0.118008
-9.988000e-07,-0.120156,-0.102008
-9.984000e-07,-0.160156,-0.102008
-9.980000e-07,-0.08,-0.106
-9.976000e-07,-0.120156,-0.0940078
-9.972000e-07,-0.120156,-0.0820078
-9.968000e-07,-0.2,-0.068
-9.964000e-07,-0.04,-0.066
-9.960000e-07,-0.12,-0.056
-9.956000e-07,-0.160156,-0.0540078
-9.952000e-07,-0.12,-0.056
-9.948000e-07,-0.08,-0.05
-9.944000e-07,-0.12,-0.044
-9.940000e-07,-0.0401562,-0.0380078
-9.936000e-07,-0.00015625,-0.0400078
-9.932000e-07,-0.0801562,-0.0320078
-9.928000e-07,-0.0401562,-0.0320078
-9.924000e-07,-0.08,-0.032
-9.920000e-07,-0.0401562,-0.0280078
-9.916000e-07,-0.04,-0.03
-9.912000e-07,-0.0801562,-0.0300078
-9.908000e-07,-0.160156,-0.0180078
-9.904000e-07,-0.08,-0.026
-9.900000e-07,-0.12,-0.03
-9.896000e-07,-0.08,-0.026
-9.892000e-07,-0.12,-0.028
-9.888000e-07,-0.12,-0.032
-9.884000e-07,-0.0801562,-0.0240078
-9.880000e-07,-0.120156,-0.0240078
-9.876000e-07,-0.120156,-0.0220078
-9.872000e-07,-0.04,-0.03
-9.868000e-07,-0.120156,-0.0220078
-9.864000e-07,-0.08,-0.026
-9.860000e-07,-0.12,-0.024
-9.856000e-07,-0.160156,-0.0160078
-9.852000e-07,-0.0801562,-0.0260078
-9.848000e-07,-0.0401562,-0.0360078
-9.844000e-07,-0.0801562,-0.0340078
-9.840000e-07,-0.120156,-0.0440078
-9.836000e-07,-0.16,-0.032
-9.832000e-07,-0.160156,-0.0300078
-9.828000e-07,-0.120156,-0.0380078
-9.824000e-07,-0.12,-0.018
-9.820000e-07,-0.160156,-0.0240078
-9.816000e-07,-0.16,-0.032
-9.812000e-07,-0.200156,-0.0280078
-9.808000e-07,-0.160156,-0.0220078
-9.804000e-07,-0.160156,-0.0300078
-9.800000e-07,-0.200156,-0.0340078
-9.796000e-07,-0.200156,-0.0280078
-9.792000e-07,-0.240156,-0.0260078
-9.788000e-07,-0.200156,-0.0200078
-9.784000e-07,-0.2,-0.03
-9.780000e-07,-0.16,-0.026
-9.776000e-07,-0.16,-0.034
-9.772000e-07,-0.200156,-0.0220078
-9.768000e-07,-0.08,-0.016
-9.764000e-07,-0.240156,-0.0160078
-9.760000e-07,-0.16,-0.028
-9.756000e-07,-0.12,-0.03
-9.752000e-07,-0.160156,-0.0240078
-9.748000e-07,-0.160156,-0.0160078
-9.744000e-07,-0.2,-0.004
-9.740000e-07,-0.120156,-0.0160078
-9.736000e-07,-0.0401562,-0.0220078
-9.732000e-07,-0.120156,-0.0200078
-9.728000e-07,-0.120156,-0.0140078
-9.724000e-07,-0.12,-0.01
-9.720000e-07,-0.12,-0.016
-9.716000e-07,-0.0801562,-0.00400781
-9.712000e-07,-0.0801562,-0.00800781
-9.708000e-07,-0.00015625,-0.00400781
-9.704000e-07,-0.08,0
-9.700000e-07,-0.120156,-0.00800781
-9.696000e-07,-0.0801562,-0.0140078
-9.692000e-07,-0.00015625,-7.8125e-06
-9.688000e-07,-0.0401562,0.00399219
-9.684000e-07,-0.04,-0.01
-9.680000e-07,-0.04,-0.01
-9.676000e-07,-0.08,-0.004
-9.672000e-07,-0.04,-0.002
-9.668000e-07,-0.08,-0.004
-9.664000e-07,-0.0401562,-0.00400781
-9.660000e-07,-0.08,0
-9.656000e-07,-0.0801562,0.00399219
-9.652000e-07,-0.0801562,-0.0120078
-9.648000e-07,-0.200156,-0.0160078
-9.644000e-07,-0.08,-0.008
-9.640000e-07,-0.0401562,-0.0200078
-9.636000e-07,-0.08,-0.004
-9.632000e-07,-0.16,-0.018
-9.628000e-07,-0.08,-0.01
-9.624000e-07,-0.0801562,-0.00800781
-9.620000e-07,-0.200156,-0.0100078
-9.616000e-07,-0.0801562,-0.0220078
-9.612000e-07,-0.120156,-0.0140078
-9.608000e-07,-0.16,-0.008
-9.604000e-07,-0.120156,-0.0220078
-9.600000e-07,-0.120156,-0.0220078
-9.596000e-07,-0.240156,-0.0180078
-9.592000e-07,-0.0801562,-0.0200078
-9.588000e-07,-0.2,-0.034
-9.584000e-07,-0.200156,-0.0320078
-9.580000e-07,-0.120156,-0.0540078
-9.576000e-07,-0.160156,-0.0380078
-9.572000e-07,-0.160156,-0.0420078
-9.568000e-07,-0.16,-0.038
-9.564000e-07,-0.2,-0.054
-9.560000e-07,-0.200156,-0.0600078
-9.556000e-07,-0.240156,-0.0640078
-9.552000e-07,-0.120156,-0.0680078
-9.548000e-07,-0.160156,-0.0700078
-9.544000e-07,-0.280156,-0.0720078
-9.540000e-07,-0.2,-0.066
-9.536000e-07,-0.2,-0.082
-9.532000e-07,-0.24,-0.072
-9.528000e-07,-0.28,-0.078
-9.524000e-07,-0.160156,-0.0900078
-9.520000e-07,-0.200156,-0.104008
-9.516000e-07,-0.28,-0.1
-9.512000e-07,-0.240156,-0.120008
-9.508000e-07,-0.280156,-0.128008
-9.504000e-07,-0.2,-0.138
-9.500000e-07,-0.2,-0.132
-9.496000e-07,-0.200156,-0.148008
-9.492000e-07,-0.2,-0.154
-9.488000e-07,-0.160156,-0.158008
-9.484000e-07,-0.200156,-0.152008
-9.480000e-07,-0.200156,-0.172008
